Gathering Data from Bluesky Social
…
Gathering Posts from a User

To access posts authored by a user, use
bs_get_author_feed(), which queries the
app.bsky.feed.getAuthorFeed lexicon:

feed <- bs_get_author_feed('chriskenny.bsky.social')
feed |>
  dplyr::select(uri, like_count, reply_count)
#> # A tibble: 49 × 3
#>    uri                                                    like_count reply_count
#>    <chr>                                                       <int>       <int>
#>  1 at://did:plc:wpe35pganb6d4pg4ekmfy6u5/app.bsky.feed.p…          4           0
#>  2 at://did:plc:wpe35pganb6d4pg4ekmfy6u5/app.bsky.feed.p…          1           0
#>  3 at://did:plc:wpe35pganb6d4pg4ekmfy6u5/app.bsky.feed.p…          2           0
#>  4 at://did:plc:wpe35pganb6d4pg4ekmfy6u5/app.bsky.feed.p…          0           0
#>  5 at://did:plc:wpe35pganb6d4pg4ekmfy6u5/app.bsky.feed.p…         13           2
#>  6 at://did:plc:wpe35pganb6d4pg4ekmfy6u5/app.bsky.feed.p…          3           0
#>  7 at://did:plc:wpe35pganb6d4pg4ekmfy6u5/app.bsky.feed.p…          1           0
#>  8 at://did:plc:wpe35pganb6d4pg4ekmfy6u5/app.bsky.feed.p…          3           1
#>  9 at://did:plc:wpe35pganb6d4pg4ekmfy6u5/app.bsky.feed.p…          0           0
#> 10 at://did:plc:wpe35pganb6d4pg4ekmfy6u5/app.bsky.feed.p…          2           1
#> # ℹ 39 more rows
…
bs_get_follows(): retrieves the accounts that a given
user is following.

Both functions query the corresponding lexicons
app.bsky.graph.getFollowers and
app.bsky.graph.getFollows and return tibbles
of user profiles. .

For example, to get all followers of
chriskenny.bsky.social:

followers <- bs_get_followers('chriskenny.bsky.social')
followers
#> # A tibble: 50 × 31
#>    did            handle display_name avatar associated_activity_…¹ viewer_muted
#>    <chr>          <chr>  <chr>        <chr>  <chr>                  <chr>       
#>  1 did:plc:5c2r7… bskyr… "bskyr R pa… https… followers              FALSE       
#>  2 did:plc:alfxv… reeve… "(Parody) R… https… followers              FALSE       
#>  3 did:plc:g5k2w… 1walr… ""           https… followers              FALSE       
#>  4 did:plc:v5euo… dszlo… "Donald Szl… https… followers              FALSE       
#>  5 did:plc:4kjh7… web-e… "Web Ecolog… https… followers              FALSE       
#>  6 did:plc:v7n47… danie… "Daniel Kuh… https… followers              FALSE       
#>  7 did:plc:o3vv4… munta… "Muntasim F… https… followers              FALSE       
#>  8 did:plc:64cu2… jvega… "Jorge de l… https… followers              FALSE       
#>  9 did:plc:s52cr… tanho… "Tan"        https… followers              FALSE       
#> 10 did:plc:pfw4n… khoid… ""           https… followers              FALSE       
#> # ℹ 40 more rows
#> # ℹ abbreviated name: ¹​associated_activity_subscription_allowsubscriptions
#> # ℹ 25 more variables: viewer_blocked_by <chr>, created_at <chr>,
#> #   description <chr>, indexed_at <chr>, associated_chat_allow_incoming <chr>,
#> #   labels_src <chr>, labels_uri <chr>, labels_cid <chr>, labels_val <chr>,
#> #   labels_cts <chr>, viewer_followed_by <chr>, labels_ver <chr>,
#> #   subject_did <chr>, subject_handle <chr>, subject_display_name <chr>, …
Each row represents one follower, including their handle, display
name, and bio (description). The followers tibble may also
include each follower’s did and possibly counts or mutual
follow info (e.g., whether you follow them, if you are authenticated).
By default, a certain number of followers are returned (Bluesky’s API
uses pagination via cursors here as well). If the user has a lot of
followers, you can use the cursor and limit arguments in
bs_get_followers() to page through all results. .

Similarly, to get the list of accounts that
chriskenny.bsky.social follows (his “following” list):

follows <- bs_get_follows('chriskenny.bsky.social')
follows
#> # A tibble: 50 × 36
#>    did                         handle display_name avatar associated_chat_allo…¹
#>    <chr>                       <chr>  <chr>        <chr>  <chr>                 
#>  1 did:plc:ffvsubfysohex7plqy… djnav… "Danielle N… https… none                  
#>  2 did:plc:2u5pgtqc4hwzl6dawt… jrwin… "Jeremy R. … https… <NA>                  
#>  3 did:plc:bidmt7fufmfz7qcpa2… goste… "Gabe Oster… https… <NA>                  
#>  4 did:plc:peeplnvlwcohp4jly3… jonth… "Jon Harmon… https… following             
#>  5 did:plc:777eanw7giyjd76dwa… libby… "Libby Heer… https… <NA>                  
#>  6 did:plc:4wl2qmt6kl5ygoq6c5… teunb… "Teun van d… https… <NA>                  
#>  7 did:plc:cu2wq6d5nyoig2e7o6… darak… "Darakhshan… https… <NA>                  
#>  8 did:plc:nzi2xvusfb52ehmxof… mike.… "Michal Mig… https… following             
#>  9 did:plc:gw474qxg6yo5pvvloa… plans… "PlanScore"  https… <NA>                  
#> 10 did:plc:adcny5sqjkjlfna57s… mdsum… "mdsumner"   https… <NA>                  
#> # ℹ 40 more rows
#> # ℹ abbreviated name: ¹​associated_chat_allow_incoming
#> # ℹ 31 more variables:
#> #   associated_activity_subscription_allowsubscriptions <chr>,
#> #   viewer_muted <chr>, viewer_blocked_by <chr>, labels_src <chr>,
#> #   labels_uri <chr>, labels_cid <chr>, labels_val <chr>, labels_cts <chr>,
#> #   created_at <chr>, description <chr>, indexed_at <chr>, …
…
