Working with Lists and Starter Packs
…
library(bskyr)
auth <- bs_auth(user = bs_get_user(), pass = bs_get_pass())

Fetching and Exploring Lists

To retrieve the lists belonging to a specific user (actor), use
bs_get_actor_lists(). This function returns a tibble of the
actor’s list records. Each list entry includes fields like its
uri (the unique AT URI for the list record),
name, purpose, and any description:

# Fetch all lists created by a given user (actor)
user_lists <- bs_get_actor_lists('bskyr.bsky.social')
user_lists
#> # A tibble: 47 × 19
#>    uri    cid   name  purpose list_itemcount indexed_at viewer_muted creator_did
#>    <chr>  <chr> <chr> <chr>   <chr>          <chr>      <chr>        <chr>      
#>  1 at://… bafy… test… app.bs… 0              2025-10-2… FALSE        did:plc:5c…
#>  2 at://… bafy… bsky… app.bs… 0              2025-10-2… FALSE        did:plc:5c…
#>  3 at://… bafy… bsky… app.bs… 0              2025-09-0… FALSE        did:plc:5c…
#>  4 at://… bafy… bsky… app.bs… 0              2025-09-0… FALSE        did:plc:5c…
#>  5 at://… bafy… test… app.bs… 0              2025-07-2… FALSE        did:plc:5c…
#>  6 at://… bafy… bsky… app.bs… 0              2025-07-2… FALSE        did:plc:5c…
#>  7 at://… bafy… test… app.bs… 0              2025-07-2… FALSE        did:plc:5c…
#>  8 at://… bafy… bsky… app.bs… 0              2025-07-2… FALSE        did:plc:5c…
#>  9 at://… bafy… test… app.bs… 0              2025-07-2… FALSE        did:plc:5c…
#> 10 at://… bafy… bsky… app.bs… 0              2025-07-2… FALSE        did:plc:5c…
#> # ℹ 37 more rows
#> # ℹ 11 more variables: creator_handle <chr>, creator_display_name <chr>,
#> #   creator_avatar <chr>,
#> #   creator_associated_activity_subscription.allowsubscriptions <chr>,
#> #   creator_viewer_muted <chr>, creator_viewer_blocked_by <chr>,
#> #   creator_created_at <chr>, creator_description <chr>,
#> #   creator_indexed_at <chr>, avatar <chr>, description <chr>
…
